****CA 5 LEGEND****

pMusicType
1 Rock & Roll
2 Pop
3 Hard Rock
4 Heavy Metal
5 Country 
6 R & B
7 Hip Hop
8 Electronic
9 Classical
10 Folk & World
11 Soundtrack
12 Reggae
13 Punk
14 Blues
15 Jazz

era
1 oldies
2 50s
3 60s
4 70s
5 80s
6 90s
7 00s
8 Current